PSTAT 131 HW 5 WRITE UP
…
# set up model
multi_reg <- multinom_reg(penalty = tune(),
                          mixture = tune()) %>%
  set_engine("glmnet")
# set up workflow
multi_wkflow <- workflow() %>%
  add_model(multi_reg) %>%
  add_recipe(pokemon_recipe)
# regular grid for penalty and mixture 
# 10 levels each 
pokemon_grid <- grid_regular(penalty(range=c(-5,5)),                           mixture(range(c(0,1))),
                             levels = 10)
pokemon_grid

## # A tibble: 100 x 2
##          penalty mixture
##            <dbl>   <dbl>
##  1      0.00001        0
##  2      0.000129       0
##  3      0.00167        0
##  4      0.0215         0
##  5      0.278          0
##  6      3.59           0
##  7     46.4            0
##  8    599.             0
##  9   7743.             0
## 10 100000              0
## # ... with 90 more rows
…
